{
  "handles_regression": true,
  "is_class": true,
  "library": "sklearn",
  "compute_resources": {},
  "common_name": "Ada Boost Regressor",
  "id": "7a76922c-bf6f-37ce-9e58-1d3315382506",
  "handles_classification": false,
  "category": "ensemble.weight_boosting",
  "source_code_unanalyzed": "https://github.com/scikit-learn/scikit-learn/blob/0.18.X/sklearn/ensemble/weight_boosting.py#L848",
  "parameters": [
    {
      "default": "DecisionTreeRegressor",
      "type": "object",
      "optional": "true",
      "name": "base_estimator",
      "description": "The base estimator from which the boosted ensemble is built. Support for sample weighting is required. "
    },
    {
      "default": "50",
      "type": "integer",
      "optional": "true",
      "name": "n_estimators",
      "description": "The maximum number of estimators at which boosting is terminated. In case of perfect fit, the learning procedure is stopped early. "
    },
    {
      "default": "1.",
      "type": "float",
      "optional": "true",
      "name": "learning_rate",
      "description": "Learning rate shrinks the contribution of each regressor by ``learning_rate``. There is a trade-off between ``learning_rate`` and ``n_estimators``. "
    },
    {
      "default": "\\'linear\\'",
      "type": "\\'linear\\', \\'square\\', \\'exponential\\'",
      "optional": "true",
      "name": "loss",
      "description": "The loss function to use when updating the weights after each boosting iteration. "
    },
    {
      "default": "None",
      "type": "int",
      "optional": "true",
      "name": "random_state",
      "description": "If int, random_state is the seed used by the random number generator; If RandomState instance, random_state is the random number generator; If None, the random number generator is the RandomState instance used by `np.random`. "
    }
  ],
  "input_type": [
    "DENSE",
    "SPARSE",
    "UNSIGNED_DATA"
  ],
  "methods_available": [
    {
      "id": "sklearn.ensemble.weight_boosting.AdaBoostRegressor.fit",
      "returns": {
        "type": "object",
        "name": "self",
        "description": "Returns self. '"
      },
      "description": "'Build a boosted regressor from the training set (X, y).\n",
      "parameters": [
        {
          "shape": "n_samples, n_features",
          "type": "array-like, sparse matrix",
          "name": "X",
          "description": "The training input samples. Sparse matrix can be CSC, CSR, COO, DOK, or LIL. DOK and LIL are converted to CSR. "
        },
        {
          "shape": "n_samples",
          "type": "array-like",
          "name": "y",
          "description": "The target values (real numbers). "
        },
        {
          "type": "array-like",
          "shape": "n_samples",
          "optional": "true",
          "name": "sample_weight",
          "description": "Sample weights. If None, the sample weights are initialized to 1 / n_samples. "
        }
      ],
      "name": "fit"
    },
    {
      "id": "sklearn.ensemble.weight_boosting.AdaBoostRegressor.get_params",
      "returns": {
        "type": "mapping",
        "name": "params",
        "description": "Parameter names mapped to their values. '"
      },
      "description": "'Get parameters for this estimator.\n",
      "parameters": [
        {
          "type": "boolean",
          "optional": "true",
          "name": "deep",
          "description": "If True, will return the parameters for this estimator and contained subobjects that are estimators. "
        }
      ],
      "name": "get_params"
    },
    {
      "id": "sklearn.ensemble.weight_boosting.AdaBoostRegressor.predict",
      "returns": {
        "shape": "n_samples",
        "type": "array",
        "name": "y",
        "description": "The predicted regression values. '"
      },
      "description": "'Predict regression value for X.\n\nThe predicted regression value of an input sample is computed\nas the weighted median prediction of the classifiers in the ensemble.\n",
      "parameters": [
        {
          "shape": "n_samples, n_features",
          "type": "array-like, sparse matrix",
          "name": "X",
          "description": "The training input samples. Sparse matrix can be CSC, CSR, COO, DOK, or LIL. DOK and LIL are converted to CSR. "
        }
      ],
      "name": "predict"
    },
    {
      "id": "sklearn.tree.tree.DecisionTreeClassifier.feature_importances_",
      "returns": {
        "name": "feature_importances",
        "description": "\""
      },
      "description": "\"The importance of a feature is computed as the (normalized) total reduction of the criterion brought by that feature. It is also known as the Gini importance.\n",
      "parameters": [],
      "name": "feature_importances_"
    },
    {
      "id": "sklearn.ensemble.weight_boosting.AdaBoostRegressor.score",
      "returns": {
        "type": "float",
        "name": "score",
        "description": "R^2 of self.predict(X) wrt. y. '"
      },
      "description": "'Returns the coefficient of determination R^2 of the prediction.\n\nThe coefficient R^2 is defined as (1 - u/v), where u is the regression\nsum of squares ((y_true - y_pred) ** 2).sum() and v is the residual\nsum of squares ((y_true - y_true.mean()) ** 2).sum().\nBest possible score is 1.0 and it can be negative (because the\nmodel can be arbitrarily worse). A constant model that always\npredicts the expected value of y, disregarding the input features,\nwould get a R^2 score of 0.0.\n",
      "parameters": [
        {
          "shape": "n_samples, n_features",
          "type": "array-like",
          "name": "X",
          "description": "Test samples. "
        },
        {
          "shape": "n_samples",
          "type": "array-like",
          "name": "y",
          "description": "True values for X. "
        },
        {
          "type": "array-like",
          "shape": "n_samples",
          "optional": "true",
          "name": "sample_weight",
          "description": "Sample weights. "
        }
      ],
      "name": "score"
    },
    {
      "id": "sklearn.ensemble.weight_boosting.AdaBoostRegressor.set_params",
      "returns": {
        "name": "self",
        "description": "\""
      },
      "description": "\"Set the parameters of this estimator.\n\nThe method works on simple estimators as well as on nested objects\n(such as pipelines). The latter have parameters of the form\n``<component>__<parameter>`` so that it's possible to update each\ncomponent of a nested object.\n",
      "parameters": [],
      "name": "set_params"
    },
    {
      "id": "sklearn.ensemble.weight_boosting.AdaBoostRegressor.staged_predict",
      "returns": {
        "shape": "n_samples",
        "type": "generator",
        "name": "y",
        "description": "The predicted regression values. '"
      },
      "description": "'Return staged predictions for X.\n\nThe predicted regression value of an input sample is computed\nas the weighted median prediction of the classifiers in the ensemble.\n\nThis generator method yields the ensemble prediction after each\niteration of boosting and therefore allows monitoring, such as to\ndetermine the prediction on a test set after each boost.\n",
      "parameters": [
        {
          "shape": "n_samples, n_features",
          "type": "array-like, sparse matrix",
          "name": "X",
          "description": "The training input samples. Sparse matrix can be CSC, CSR, COO, DOK, or LIL. DOK and LIL are converted to CSR. "
        }
      ],
      "name": "staged_predict"
    },
    {
      "id": "sklearn.ensemble.weight_boosting.AdaBoostRegressor.staged_score",
      "returns": {
        "type": "float",
        "name": "z",
        "description": "'"
      },
      "description": "'Return staged scores for X, y.\n\nThis generator method yields the ensemble score after each iteration of\nboosting and therefore allows monitoring, such as to determine the\nscore on a test set after each boost.\n",
      "parameters": [
        {
          "shape": "n_samples, n_features",
          "type": "array-like, sparse matrix",
          "name": "X",
          "description": "The training input samples. Sparse matrix can be CSC, CSR, COO, DOK, or LIL. DOK and LIL are converted to CSR. "
        },
        {
          "shape": "n_samples",
          "type": "array-like",
          "name": "y",
          "description": "Labels for X. "
        },
        {
          "type": "array-like",
          "shape": "n_samples",
          "optional": "true",
          "name": "sample_weight",
          "description": "Sample weights. "
        }
      ],
      "name": "staged_score"
    }
  ],
  "common_name_unanalyzed": "Ada Boost Regressor",
  "schema_version": 1.0,
  "languages": [
    "python2.7"
  ],
  "version": "0.18.1",
  "build": [
    {
      "type": "pip",
      "package": "scikit-learn"
    }
  ],
  "handles_multiclass": false,
  "description": "'An AdaBoost regressor.\n\nAn AdaBoost [1] regressor is a meta-estimator that begins by fitting a\nregressor on the original dataset and then fits additional copies of the\nregressor on the same dataset but where the weights of instances are\nadjusted according to the error of the current prediction. As such,\nsubsequent regressors focus more on difficult cases.\n\nThis class implements the algorithm known as AdaBoost.R2 [2].\n\nRead more in the :ref:`User Guide <adaboost>`.\n",
  "tags": [
    "ensemble",
    "weight_boosting"
  ],
  "learning_type": [
    "supervised"
  ],
  "task_type": [
    "modeling"
  ],
  "output_type": [
    "PREDICTIONS"
  ],
  "source_code": "https://github.com/scikit-learn/scikit-learn/blob/0.18.X/sklearn/ensemble/weight_boosting.py#L848",
  "category_unanalyzed": "ensemble.weight_boosting",
  "name": "sklearn.ensemble.weight_boosting.AdaBoostRegressor",
  "handles_multilabel": false,
  "is_deterministic": true,
  "team": "jpl",
  "attributes": [
    {
      "type": "list",
      "name": "estimators_",
      "description": "The collection of fitted sub-estimators. "
    },
    {
      "type": "array",
      "name": "estimator_weights_",
      "description": "Weights for each estimator in the boosted ensemble. "
    },
    {
      "type": "array",
      "name": "estimator_errors_",
      "description": "Regression error for each estimator in the boosted ensemble. "
    }
  ]
}
