{
  "is_class": true, 
  "library": "sklearn", 
  "compute_resources": {}, 
  "common_name": "Kernel PCA", 
  "id": "4354a12f-c051-36bd-9855-d6308b130df5", 
  "category": "decomposition.kernel_pca", 
  "source_code_unanalyzed": "https://github.com/scikit-learn/scikit-learn/blob/0.18.X/sklearn/decomposition/kernel_pca.py#L18", 
  "parameters": [
    {
      "type": "int", 
      "name": "n_components", 
      "description": "Number of components. If None, all non-zero components are kept. "
    }, 
    {
      "type": "", 
      "name": "kernel", 
      "description": "Kernel. Default=\"linear\". "
    }, 
    {
      "type": "int", 
      "name": "degree", 
      "description": "Degree for poly kernels. Ignored by other kernels. "
    }, 
    {
      "type": "float", 
      "name": "gamma", 
      "description": "Kernel coefficient for rbf and poly kernels. Ignored by other kernels.  coef0 : float, default=1 Independent term in poly and sigmoid kernels. Ignored by other kernels. "
    }, 
    {
      "type": "mapping", 
      "name": "kernel_params", 
      "description": "Parameters (keyword arguments) and values for kernel passed as callable object. Ignored by other kernels. "
    }, 
    {
      "type": "int", 
      "name": "alpha", 
      "description": "Hyperparameter of the ridge regression that learns the inverse transform (when fit_inverse_transform=True). "
    }, 
    {
      "type": "bool", 
      "name": "fit_inverse_transform", 
      "description": "Learn the inverse transform for non-precomputed kernels. (i.e. learn to find the pre-image of a point) "
    }, 
    {
      "type": "string", 
      "name": "eigen_solver", 
      "description": "Select eigensolver to use. If n_components is much less than the number of training samples, arpack may be more efficient than the dense eigensolver. "
    }, 
    {
      "type": "float", 
      "name": "tol", 
      "description": "Convergence tolerance for arpack. If 0, optimal value will be chosen by arpack. "
    }, 
    {
      "type": "int", 
      "name": "max_iter", 
      "description": "Maximum number of iterations for arpack. If None, optimal value will be chosen by arpack. "
    }, 
    {
      "type": "boolean", 
      "name": "remove_zero_eig", 
      "description": "If True, then all components with zero eigenvalues are removed, so that the number of components in the output may be < n_components (and sometimes even zero due to numerical instability). When n_components is None, this parameter is ignored and components with zero eigenvalues are removed regardless. "
    }, 
    {
      "type": "int", 
      "name": "random_state", 
      "description": "A pseudo random number generator used for the initialization of the residuals when eigen_solver == \\'arpack\\'.  .. versionadded:: 0.18 "
    }, 
    {
      "type": "int", 
      "name": "n_jobs", 
      "description": "The number of parallel jobs to run. If `-1`, then the number of jobs is set to the number of CPU cores.  .. versionadded:: 0.18  copy_X : boolean, default=True If True, input X is copied and stored by the model in the `X_fit_` attribute. If no further changes will be done to X, setting `copy_X=False` saves memory by storing a reference.  .. versionadded:: 0.18 "
    }
  ], 
  "tags": [
    "decomposition", 
    "kernel_pca"
  ], 
  "common_name_unanalyzed": "Kernel PCA", 
  "schema_version": 1.0, 
  "languages": [
    "python2.7"
  ], 
  "version": "0.18.1", 
  "build": [
    {
      "type": "pip", 
      "package": "scikit-learn"
    }
  ], 
  "description": "'Kernel Principal component analysis (KPCA)\n\nNon-linear dimensionality reduction through the use of kernels (see\n:ref:`metrics`).\n\nRead more in the :ref:`User Guide <kernel_PCA>`.\n", 
  "methods_available": [
    {
      "id": "sklearn.decomposition.kernel_pca.KernelPCA.fit", 
      "returns": {
        "type": "object", 
        "name": "self", 
        "description": "Returns the instance itself. '"
      }, 
      "description": "'Fit the model from data in X.\n", 
      "parameters": [
        {
          "shape": "n_samples, n_features", 
          "type": "array-like", 
          "name": "X", 
          "description": "Training vector, where n_samples in the number of samples and n_features is the number of features. "
        }
      ], 
      "name": "fit"
    }, 
    {
      "id": "sklearn.decomposition.kernel_pca.KernelPCA.fit_transform", 
      "returns": {
        "name": "X_new: array-like, shape (n_samples, n_components)", 
        "description": "'"
      }, 
      "description": "'Fit the model from data in X and transform X.\n", 
      "parameters": [
        {
          "shape": "n_samples, n_features", 
          "type": "array-like", 
          "name": "X", 
          "description": "Training vector, where n_samples in the number of samples and n_features is the number of features. "
        }
      ], 
      "name": "fit_transform"
    }, 
    {
      "id": "sklearn.decomposition.kernel_pca.KernelPCA.get_params", 
      "returns": {
        "type": "mapping", 
        "name": "params", 
        "description": "Parameter names mapped to their values. '"
      }, 
      "description": "'Get parameters for this estimator.\n", 
      "parameters": [
        {
          "type": "boolean", 
          "optional": "true", 
          "name": "deep", 
          "description": "If True, will return the parameters for this estimator and contained subobjects that are estimators. "
        }
      ], 
      "name": "get_params"
    }, 
    {
      "id": "sklearn.decomposition.kernel_pca.KernelPCA.inverse_transform", 
      "returns": {
        "name": "X_new: array-like, shape (n_samples, n_features)", 
        "description": " References ---------- \"Learning to Find Pre-Images\", G BakIr et al, 2004. '"
      }, 
      "description": "'Transform X back to original space.\n", 
      "parameters": [
        {
          "shape": "n_samples, n_components", 
          "type": "array-like", 
          "name": "X", 
          "description": ""
        }
      ], 
      "name": "inverse_transform"
    }, 
    {
      "id": "sklearn.decomposition.kernel_pca.KernelPCA.set_params", 
      "returns": {
        "name": "self", 
        "description": "\""
      }, 
      "description": "\"Set the parameters of this estimator.\n\nThe method works on simple estimators as well as on nested objects\n(such as pipelines). The latter have parameters of the form\n``<component>__<parameter>`` so that it's possible to update each\ncomponent of a nested object.\n", 
      "parameters": [], 
      "name": "set_params"
    }, 
    {
      "id": "sklearn.decomposition.kernel_pca.KernelPCA.transform", 
      "returns": {
        "name": "X_new: array-like, shape (n_samples, n_components)", 
        "description": "'"
      }, 
      "description": "'Transform X.\n", 
      "parameters": [
        {
          "shape": "n_samples, n_features", 
          "type": "array-like", 
          "name": "X", 
          "description": ""
        }
      ], 
      "name": "transform"
    }
  ], 
  "learning_type": [
    "supervised"
  ], 
  "task_type": [
    "modeling"
  ], 
  "source_code": "https://github.com/scikit-learn/scikit-learn/blob/0.18.X/sklearn/decomposition/kernel_pca.py#L18", 
  "category_unanalyzed": "decomposition.kernel_pca", 
  "name": "sklearn.decomposition.kernel_pca.KernelPCA", 
  "team": "jpl", 
  "attributes": [
    {
      "type": "array", 
      "name": "lambdas_", 
      "description": "Eigenvalues of the centered kernel matrix in decreasing order. If `n_components` and `remove_zero_eig` are not set, then all values are stored. "
    }, 
    {
      "type": "array", 
      "name": "alphas_", 
      "description": "Eigenvectors of the centered kernel matrix. If `n_components` and `remove_zero_eig` are not set, then all components are stored. "
    }, 
    {
      "type": "array", 
      "name": "dual_coef_", 
      "description": "Inverse transform matrix. Set if `fit_inverse_transform` is True.  X_transformed_fit_ : array, (n_samples, n_components) Projection of the fitted data on the kernel principal components.  X_fit_ : (n_samples, n_features) The data used to fit the model. If `copy_X=False`, then `X_fit_` is a reference. This attribute is used for the calls to transform. "
    }
  ]
}