{
  "is_class": true, 
  "library": "sklearn", 
  "compute_resources": {}, 
  "common_name": "Nystroem", 
  "id": "9f594988-bfee-3341-a15d-7f2e7406c963", 
  "category": "kernel_approximation", 
  "source_code_unanalyzed": "https://github.com/scikit-learn/scikit-learn/blob/0.18.X/sklearn/kernel_approximation.py#L361", 
  "parameters": [
    {
      "type": "string", 
      "name": "kernel", 
      "description": "Kernel map to be approximated. A callable should accept two arguments and the keyword arguments passed to this object as kernel_params, and should return a floating point number. "
    }, 
    {
      "type": "int", 
      "name": "n_components", 
      "description": "Number of features to construct. How many data points will be used to construct the mapping. "
    }, 
    {
      "type": "float", 
      "name": "gamma", 
      "description": "Gamma parameter for the RBF, polynomial, exponential chi2 and sigmoid kernels. Interpretation of the default value is left to the kernel; see the documentation for sklearn.metrics.pairwise. Ignored by other kernels. "
    }, 
    {
      "type": "float", 
      "name": "degree", 
      "description": "Degree of the polynomial kernel. Ignored by other kernels.  coef0 : float, default=1 Zero coefficient for polynomial and sigmoid kernels. Ignored by other kernels. "
    }, 
    {
      "type": "mapping", 
      "optional": "true", 
      "name": "kernel_params", 
      "description": "Additional parameters (keyword arguments) for kernel function passed as callable object. "
    }, 
    {
      "type": "int, RandomState", 
      "optional": "true", 
      "name": "random_state", 
      "description": "If int, random_state is the seed used by the random number generator; if RandomState instance, random_state is the random number generator.  "
    }
  ], 
  "tags": [
    "kernel_approximation"
  ], 
  "common_name_unanalyzed": "Nystroem", 
  "schema_version": 1.0, 
  "languages": [
    "python2.7"
  ], 
  "version": "0.18.1", 
  "build": [
    {
      "type": "pip", 
      "package": "scikit-learn"
    }
  ], 
  "description": "'Approximate a kernel map using a subset of the training data.\n\nConstructs an approximate feature map for an arbitrary kernel\nusing a subset of the data as basis.\n\nRead more in the :ref:`User Guide <nystroem_kernel_approx>`.\n", 
  "methods_available": [
    {
      "id": "sklearn.kernel_approximation.Nystroem.fit", 
      "description": "'Fit estimator to data.\n\nSamples a subset of training points, computes kernel\non these and computes normalization matrix.\n", 
      "parameters": [
        {
          "shape": "n_samples, n_feature", 
          "type": "array-like", 
          "name": "X", 
          "description": "Training data. '"
        }
      ], 
      "name": "fit"
    }, 
    {
      "id": "sklearn.kernel_approximation.Nystroem.fit_transform", 
      "returns": {
        "shape": "n_samples, n_features_new", 
        "type": "numpy", 
        "name": "X_new", 
        "description": "Transformed array.  '"
      }, 
      "description": "'Fit to data, then transform it.\n\nFits transformer to X and y with optional parameters fit_params\nand returns a transformed version of X.\n", 
      "parameters": [
        {
          "shape": "n_samples, n_features", 
          "type": "numpy", 
          "name": "X", 
          "description": "Training set. "
        }, 
        {
          "shape": "n_samples", 
          "type": "numpy", 
          "name": "y", 
          "description": "Target values. "
        }
      ], 
      "name": "fit_transform"
    }, 
    {
      "id": "sklearn.kernel_approximation.Nystroem.get_params", 
      "returns": {
        "type": "mapping", 
        "name": "params", 
        "description": "Parameter names mapped to their values. '"
      }, 
      "description": "'Get parameters for this estimator.\n", 
      "parameters": [
        {
          "type": "boolean", 
          "optional": "true", 
          "name": "deep", 
          "description": "If True, will return the parameters for this estimator and contained subobjects that are estimators. "
        }
      ], 
      "name": "get_params"
    }, 
    {
      "id": "sklearn.kernel_approximation.Nystroem.set_params", 
      "returns": {
        "name": "self", 
        "description": "\""
      }, 
      "description": "\"Set the parameters of this estimator.\n\nThe method works on simple estimators as well as on nested objects\n(such as pipelines). The latter have parameters of the form\n``<component>__<parameter>`` so that it's possible to update each\ncomponent of a nested object.\n", 
      "parameters": [], 
      "name": "set_params"
    }, 
    {
      "id": "sklearn.kernel_approximation.Nystroem.transform", 
      "returns": {
        "shape": "n_samples, n_components", 
        "type": "array", 
        "name": "X_transformed", 
        "description": "Transformed data. '"
      }, 
      "description": "'Apply feature map to X.\n\nComputes an approximate feature map using the kernel\nbetween some training points and X.\n", 
      "parameters": [
        {
          "shape": "n_samples, n_features", 
          "type": "array-like", 
          "name": "X", 
          "description": "Data to transform. "
        }
      ], 
      "name": "transform"
    }
  ], 
  "learning_type": [
    "supervised"
  ], 
  "task_type": [
    "modeling"
  ], 
  "source_code": "https://github.com/scikit-learn/scikit-learn/blob/0.18.X/sklearn/kernel_approximation.py#L361", 
  "category_unanalyzed": "kernel_approximation", 
  "name": "sklearn.kernel_approximation.Nystroem", 
  "team": "jpl", 
  "attributes": [
    {
      "shape": "n_components, n_features", 
      "type": "array", 
      "name": "components_", 
      "description": "Subset of training points used to construct the feature map. "
    }, 
    {
      "shape": "n_components", 
      "type": "array", 
      "name": "component_indices_", 
      "description": "Indices of ``components_`` in the training set. "
    }, 
    {
      "shape": "n_components, n_components", 
      "type": "array", 
      "name": "normalization_", 
      "description": "Normalization matrix needed for embedding. Square root of the kernel matrix on ``components_``.  "
    }
  ]
}