{
  "is_class": true,
  "library": "sklearn",
  "compute_resources": {},
  "common_name": "One Hot Encoder",
  "id": "8da85c2e-12fa-30dc-827d-c7752f4422f0",
  "category": "preprocessing.data",
  "source_code_unanalyzed": "https://github.com/scikit-learn/scikit-learn/blob/0.18.X/sklearn/preprocessing/data.py#L1728",
  "parameters": [
    {
      "type": "",
      "name": "n_values",
      "description": "Number of values per feature.  - \\'auto\\' : determine value range from training data. - int : number of categorical values per feature. Each feature value should be in ``range(n_values)`` - array : ``n_values[i]`` is the number of categorical values in ``X[:, i]``. Each feature value should be in ``range(n_values[i])`` "
    },
    {
      "type": "",
      "name": "categorical_features",
      "description": "Specify what features are treated as categorical.  - \\'all\\' (default): All features are treated as categorical. - array of indices: Array of categorical feature indices. - mask: Array of length n_features and with dtype=bool.  Non-categorical features are always stacked to the right of the matrix. "
    },
    {
      "type": "number",
      "name": "dtype",
      "description": "Desired dtype of output. "
    },
    {
      "type": "boolean",
      "name": "sparse",
      "description": "Will return sparse matrix if set True else will return an array. "
    },
    {
      "type": "str",
      "name": "handle_unknown",
      "description": "Whether to raise an error or ignore if a unknown categorical feature is present during transform. "
    }
  ],
  "tags": [
    "preprocessing",
    "data"
  ],
  "common_name_unanalyzed": "One Hot Encoder",
  "schema_version": 1,
  "languages": [
    "python2.7"
  ],
  "version": "0.18.1",
  "build": [
    {
      "type": "pip",
      "package": "scikit-learn"
    }
  ],
  "description": "'Encode categorical integer features using a one-hot aka one-of-K scheme.\n\nThe input to this transformer should be a matrix of integers, denoting\nthe values taken on by categorical (discrete) features. The output will be\na sparse matrix where each column corresponds to one possible value of one\nfeature. It is assumed that input features take on values in the range\n[0, n_values).\n\nThis encoding is needed for feeding categorical data to many scikit-learn\nestimators, notably linear models and SVMs with the standard kernels.\n\nNote: a one-hot encoding of y labels should use a LabelBinarizer\ninstead.\n\nRead more in the :ref:`User Guide <preprocessing_categorical_features>`.\n",
  "methods_available": [
    {
      "id": "sklearn.preprocessing.data.OneHotEncoder.fit",
      "returns": {
        "name": "self",
        "description": "'"
      },
      "description": "'Fit OneHotEncoder to X.\n",
      "parameters": [
        {
          "shape": "n_samples, n_feature",
          "type": "array-like",
          "name": "X",
          "description": "Input array of type int. "
        }
      ],
      "name": "fit"
    },
    {
      "id": "sklearn.preprocessing.data.OneHotEncoder.fit_transform",
      "description": "'Fit OneHotEncoder to X, then transform X.\n\nEquivalent to self.fit(X).transform(X), but more convenient and more\nefficient. See fit for the parameters, transform for the return value.\n'",
      "parameters": [],
      "name": "fit_transform"
    },
    {
      "id": "sklearn.preprocessing.data.OneHotEncoder.get_params",
      "returns": {
        "type": "mapping",
        "name": "params",
        "description": "Parameter names mapped to their values. '"
      },
      "description": "'Get parameters for this estimator.\n",
      "parameters": [
        {
          "type": "boolean",
          "optional": "true",
          "name": "deep",
          "description": "If True, will return the parameters for this estimator and contained subobjects that are estimators. "
        }
      ],
      "name": "get_params"
    },
    {
      "id": "sklearn.preprocessing.data.OneHotEncoder.set_params",
      "returns": {
        "name": "self",
        "description": "\""
      },
      "description": "\"Set the parameters of this estimator.\n\nThe method works on simple estimators as well as on nested objects\n(such as pipelines). The latter have parameters of the form\n``<component>__<parameter>`` so that it's possible to update each\ncomponent of a nested object.\n",
      "parameters": [],
      "name": "set_params"
    },
    {
      "id": "sklearn.preprocessing.data.OneHotEncoder.transform",
      "returns": {
        "type": "sparse",
        "name": "X_out",
        "description": "Transformed input. '"
      },
      "description": "'Transform X using one-hot encoding.\n",
      "parameters": [
        {
          "shape": "n_samples, n_features",
          "type": "array-like",
          "name": "X",
          "description": "Input array of type int. "
        }
      ],
      "name": "transform"
    }
  ],
  "learning_type": [
    "supervised"
  ],
  "task_type": [
    "modeling"
  ],
  "source_code": "https://github.com/scikit-learn/scikit-learn/blob/0.18.X/sklearn/preprocessing/data.py#L1728",
  "category_unanalyzed": "preprocessing.data",
  "name": "sklearn.preprocessing.data.OneHotEncoder",
  "team": "jpl",
  "attributes": [
    {
      "type": "array",
      "name": "active_features_",
      "description": "Indices for active features, meaning values that actually occur in the training set. Only available when n_values is ``\\'auto\\'``. "
    },
    {
      "shape": "n_features,",
      "type": "array",
      "name": "feature_indices_",
      "description": "Indices to feature ranges. Feature ``i`` in the original data is mapped to features from ``feature_indices_[i]`` to ``feature_indices_[i+1]`` (and then potentially masked by `active_features_` afterwards) "
    },
    {
      "shape": "n_features,",
      "type": "array",
      "name": "n_values_",
      "description": "Maximum number of values per feature. "
    }
  ]
}
