{
  "is_class": true, 
  "library": "sklearn", 
  "compute_resources": {}, 
  "common_name": "Select Percentile", 
  "id": "d1da0859-cd4f-3432-acd7-1dabe1f99ce3", 
  "category": "feature_selection.univariate_selection", 
  "source_code_unanalyzed": "https://github.com/scikit-learn/scikit-learn/blob/0.18.X/sklearn/feature_selection/univariate_selection.py#L349", 
  "parameters": [
    {
      "type": "callable", 
      "name": "score_func", 
      "description": "Function taking two arrays X and y, and returning a pair of arrays (scores, pvalues) or a single array with scores. Default is f_classif (see below \"See also\"). The default function only works with classification tasks. "
    }, 
    {
      "type": "int", 
      "optional": "true", 
      "name": "percentile", 
      "description": "Percent of features to keep. "
    }
  ], 
  "tags": [
    "feature_selection", 
    "univariate_selection"
  ], 
  "common_name_unanalyzed": "Select Percentile", 
  "schema_version": 1.0, 
  "languages": [
    "python2.7"
  ], 
  "version": "0.18.1", 
  "build": [
    {
      "type": "pip", 
      "package": "scikit-learn"
    }
  ], 
  "description": "'Select features according to a percentile of the highest scores.\n\nRead more in the :ref:`User Guide <univariate_feature_selection>`.\n", 
  "methods_available": [
    {
      "id": "sklearn.feature_selection.univariate_selection.SelectPercentile.fit", 
      "returns": {
        "type": "object", 
        "name": "self", 
        "description": "Returns self. '"
      }, 
      "description": "'Run score function on (X, y) and get the appropriate features.\n", 
      "parameters": [
        {
          "shape": "n_samples, n_features", 
          "type": "array-like", 
          "name": "X", 
          "description": "The training input samples. "
        }, 
        {
          "shape": "n_samples", 
          "type": "array-like", 
          "name": "y", 
          "description": "The target values (class labels in classification, real numbers in regression). "
        }
      ], 
      "name": "fit"
    }, 
    {
      "id": "sklearn.feature_selection.univariate_selection.SelectPercentile.fit_transform", 
      "returns": {
        "shape": "n_samples, n_features_new", 
        "type": "numpy", 
        "name": "X_new", 
        "description": "Transformed array.  '"
      }, 
      "description": "'Fit to data, then transform it.\n\nFits transformer to X and y with optional parameters fit_params\nand returns a transformed version of X.\n", 
      "parameters": [
        {
          "shape": "n_samples, n_features", 
          "type": "numpy", 
          "name": "X", 
          "description": "Training set. "
        }, 
        {
          "shape": "n_samples", 
          "type": "numpy", 
          "name": "y", 
          "description": "Target values. "
        }
      ], 
      "name": "fit_transform"
    }, 
    {
      "id": "sklearn.feature_selection.univariate_selection.SelectPercentile.get_params", 
      "returns": {
        "type": "mapping", 
        "name": "params", 
        "description": "Parameter names mapped to their values. '"
      }, 
      "description": "'Get parameters for this estimator.\n", 
      "parameters": [
        {
          "type": "boolean", 
          "optional": "true", 
          "name": "deep", 
          "description": "If True, will return the parameters for this estimator and contained subobjects that are estimators. "
        }
      ], 
      "name": "get_params"
    }, 
    {
      "id": "sklearn.feature_selection.univariate_selection.SelectPercentile.get_support", 
      "returns": {
        "type": "array", 
        "name": "support", 
        "description": "An index that selects the retained features from a feature vector. If `indices` is False, this is a boolean array of shape [# input features], in which an element is True iff its corresponding feature is selected for retention. If `indices` is True, this is an integer array of shape [# output features] whose values are indices into the input feature vector. '"
      }, 
      "description": "'\nGet a mask, or integer index, of the features selected\n", 
      "parameters": [
        {
          "type": "boolean", 
          "name": "indices", 
          "description": "If True, the return value will be an array of integers, rather than a boolean mask. "
        }
      ], 
      "name": "get_support"
    }, 
    {
      "id": "sklearn.feature_selection.univariate_selection.SelectPercentile.inverse_transform", 
      "returns": {
        "shape": "n_samples, n_original_features", 
        "type": "array", 
        "name": "X_r", 
        "description": "`X` with columns of zeros inserted where features would have been removed by `transform`. '"
      }, 
      "description": "'\nReverse the transformation operation\n", 
      "parameters": [
        {
          "shape": "n_samples, n_selected_features", 
          "type": "array", 
          "name": "X", 
          "description": "The input samples. "
        }
      ], 
      "name": "inverse_transform"
    }, 
    {
      "id": "sklearn.feature_selection.univariate_selection.SelectPercentile.set_params", 
      "returns": {
        "name": "self", 
        "description": "\""
      }, 
      "description": "\"Set the parameters of this estimator.\n\nThe method works on simple estimators as well as on nested objects\n(such as pipelines). The latter have parameters of the form\n``<component>__<parameter>`` so that it's possible to update each\ncomponent of a nested object.\n", 
      "parameters": [], 
      "name": "set_params"
    }, 
    {
      "id": "sklearn.feature_selection.univariate_selection.SelectPercentile.transform", 
      "returns": {
        "shape": "n_samples, n_selected_features", 
        "type": "array", 
        "name": "X_r", 
        "description": "The input samples with only the selected features. '"
      }, 
      "description": "'Reduce X to the selected features.\n", 
      "parameters": [
        {
          "shape": "n_samples, n_features", 
          "type": "array", 
          "name": "X", 
          "description": "The input samples. "
        }
      ], 
      "name": "transform"
    }
  ], 
  "learning_type": [
    "supervised"
  ], 
  "task_type": [
    "modeling"
  ], 
  "source_code": "https://github.com/scikit-learn/scikit-learn/blob/0.18.X/sklearn/feature_selection/univariate_selection.py#L349", 
  "category_unanalyzed": "feature_selection.univariate_selection", 
  "name": "sklearn.feature_selection.univariate_selection.SelectPercentile", 
  "team": "jpl", 
  "attributes": [
    {
      "shape": "n_features,", 
      "type": "array-like", 
      "name": "scores_", 
      "description": "Scores of features. "
    }, 
    {
      "shape": "n_features,", 
      "type": "array-like", 
      "name": "pvalues_", 
      "description": "p-values of feature scores, None if `score_func` returned only scores. "
    }
  ]
}