{  "primitive_family": "DATA_PREPROCESSING",
  "test_template": "preprocessor.unsupervised.test.template",
  "test_data": "numeric",
  "template": "preprocessor.unsupervised.template",
  "pipeline_template": "transformer.pipeline.template",
  "add_semantic_types":[],
  "remove_semantic_types": [],
  "SimpleImputer": {
    "class_name": "sklearn.impute.SimpleImputer",
    "class_name_override": "StringImputer",
    "primitive_family": "DATA_CLEANING",
    "test_data": "nan_string",
    "template": "imputer.template",
    "test_template": "imputer.test.template",
    "algorithm_types": [
      "IMPUTATION"
    ],
    "accepted_structural_types": [
      "str"
    ],
    "custom_imports": [
      "from sklearn.impute._base import _get_mask"
    ],
    "Hyperparams": [
      {
        "name": "missing_values",
        "type": "Hyperparameter",
        "init_args": {
          "default": "",
          "_structural_type": "str",
          "semantic_types": [
            "missing_values"
          ],
          "description": "The placeholder for the missing values. All occurrences of missing_values will be imputed."
        }
      },
      {
        "type": "UniformBool",
        "name": "add_indicator",
        "init_args": {
          "default": "False",
          "semantic_types": [
            "add_indicator"
          ],
          "_structural_type": "bool"
        }
      },
      {
        "name": "strategy",
        "type": "Enumeration",
        "init_args": {
          "default": "most_frequent",
          "_structural_type": "str",
          "semantic_types": [
            "strategy"
          ],
          "values": [
            "most_frequent",
            "constant"
          ],
          "description": "The imputation strategy."
        }
      },
      {
        "name": "fill_value",
        "type": "Hyperparameter",
        "init_args": {
          "default": "",
          "semantic_types": [
            "fill_value"
          ],
          "_structural_type": "str",
          "description": "When strategy == “constant”, fill_value is used to replace all occurrences of missing_values. If left to the default, fill_value will be 0 when imputing numerical data and “missing_value” for strings or object data types."
        },
        "hyperparams": [
          {
            "name": "string",
            "type": "Hyperparameter",
            "init_args": {
              "default": "",
              "_structural_type": "str"
            }
          },
          {
            "name": "none",
            "type": "Constant",
            "init_args": {
              "default": "None",
              "_structural_type": "None"
            }
          }
        ]
      }
    ],
    "Params": [
      {
        "name": "indicator_",
        "type": "sklearn.base.BaseEstimator"
      }
    ]
  }
}
